In file included from /home/xilinx/lib_for_caffe/boost_1_55_0/boost/chrono/duration.hpp:42:0,
                 from /home/xilinx/lib_for_caffe/boost_1_55_0/boost/chrono/time_point.hpp:33,
                 from /home/xilinx/lib_for_caffe/boost_1_55_0/boost/thread/lock_types.hpp:22,
                 from /home/xilinx/lib_for_caffe/boost_1_55_0/boost/thread/pthread/thread_data.hpp:12,
                 from /home/xilinx/lib_for_caffe/boost_1_55_0/boost/thread/thread_only.hpp:17,
                 from /home/xilinx/lib_for_caffe/boost_1_55_0/boost/thread/thread.hpp:12,
                 from /home/xilinx/lib_for_caffe/boost_1_55_0/boost/thread.hpp:13,
                 from src/caffe/data_reader.cpp:1:
/home/xilinx/lib_for_caffe/boost_1_55_0/boost/type_traits/common_type.hpp:69:22: warning: variadic templates only available with -std=c++11 or -std=gnu++11
     template<typename... T>
                      ^
/home/xilinx/lib_for_caffe/boost_1_55_0/boost/type_traits/common_type.hpp:149:46: warning: variadic templates only available with -std=c++11 or -std=gnu++11
     template<typename T, typename U, typename... V>
                                              ^
In file included from /home/xilinx/lib_for_caffe/boost_1_55_0/boost/thread/detail/thread.hpp:21:0,
                 from /home/xilinx/lib_for_caffe/boost_1_55_0/boost/thread/thread_only.hpp:22,
                 from /home/xilinx/lib_for_caffe/boost_1_55_0/boost/thread/thread.hpp:12,
                 from /home/xilinx/lib_for_caffe/boost_1_55_0/boost/thread.hpp:13,
                 from src/caffe/data_reader.cpp:1:
/home/xilinx/lib_for_caffe/boost_1_55_0/boost/thread/detail/make_tuple_indices.hpp:35:26: warning: variadic templates only available with -std=c++11 or -std=gnu++11
     template <std::size_t...> struct tuple_indices
                          ^
/home/xilinx/lib_for_caffe/boost_1_55_0/boost/thread/detail/make_tuple_indices.hpp:41:46: warning: variadic templates only available with -std=c++11 or -std=gnu++11
     template <std::size_t Sp, std::size_t ...Indices, std::size_t Ep>
                                              ^
/home/xilinx/lib_for_caffe/boost_1_55_0/boost/thread/detail/make_tuple_indices.hpp:47:46: warning: variadic templates only available with -std=c++11 or -std=gnu++11
     template <std::size_t Ep, std::size_t ...Indices>
                                              ^
In file included from /home/xilinx/lib_for_caffe/boost_1_55_0/boost/thread/detail/thread.hpp:22:0,
                 from /home/xilinx/lib_for_caffe/boost_1_55_0/boost/thread/thread_only.hpp:22,
                 from /home/xilinx/lib_for_caffe/boost_1_55_0/boost/thread/thread.hpp:12,
                 from /home/xilinx/lib_for_caffe/boost_1_55_0/boost/thread.hpp:13,
                 from src/caffe/data_reader.cpp:1:
/home/xilinx/lib_for_caffe/boost_1_55_0/boost/thread/detail/invoke.hpp:242:51: warning: variadic templates only available with -std=c++11 or -std=gnu++11
     template <class Ret, class A, class A0, class ...Args>
                                                   ^
/home/xilinx/lib_for_caffe/boost_1_55_0/boost/thread/detail/invoke.hpp:249:28: warning: variadic templates only available with -std=c++11 or -std=gnu++11
     invoke(Ret (A::*f)(Args...), BOOST_THREAD_RV_REF(A0) a0, BOOST_THREAD_RV_REF(Args) ...args)
                            ^
/home/xilinx/lib_for_caffe/boost_1_55_0/boost/thread/detail/invoke.hpp:249:91: warning: variadic templates only available with -std=c++11 or -std=gnu++11
     invoke(Ret (A::*f)(Args...), BOOST_THREAD_RV_REF(A0) a0, BOOST_THREAD_RV_REF(Args) ...args)
                                                                                           ^
/home/xilinx/lib_for_caffe/boost_1_55_0/boost/thread/detail/invoke.hpp:254:51: warning: variadic templates only available with -std=c++11 or -std=gnu++11
     template <class Ret, class A, class A0, class ...Args>
                                                   ^
/home/xilinx/lib_for_caffe/boost_1_55_0/boost/thread/detail/invoke.hpp:261:28: warning: variadic templates only available with -std=c++11 or -std=gnu++11
     invoke(Ret (A::*f)(Args...) const, BOOST_THREAD_RV_REF(A0) a0, BOOST_THREAD_RV_REF(Args) ...args)
                            ^
/home/xilinx/lib_for_caffe/boost_1_55_0/boost/thread/detail/invoke.hpp:261:97: warning: variadic templates only available with -std=c++11 or -std=gnu++11
     invoke(Ret (A::*f)(Args...) const, BOOST_THREAD_RV_REF(A0) a0, BOOST_THREAD_RV_REF(Args) ...args)
                                                                                                 ^
/home/xilinx/lib_for_caffe/boost_1_55_0/boost/thread/detail/invoke.hpp:266:51: warning: variadic templates only available with -std=c++11 or -std=gnu++11
     template <class Ret, class A, class A0, class ...Args>
                                                   ^
/home/xilinx/lib_for_caffe/boost_1_55_0/boost/thread/detail/invoke.hpp:273:28: warning: variadic templates only available with -std=c++11 or -std=gnu++11
     invoke(Ret (A::*f)(Args...) volatile, BOOST_THREAD_RV_REF(A0) a0, BOOST_THREAD_RV_REF(Args) ...args)
                            ^
/home/xilinx/lib_for_caffe/boost_1_55_0/boost/thread/detail/invoke.hpp:273:100: warning: variadic templates only available with -std=c++11 or -std=gnu++11
     invoke(Ret (A::*f)(Args...) volatile, BOOST_THREAD_RV_REF(A0) a0, BOOST_THREAD_RV_REF(Args) ...args)
                                                                                                    ^
/home/xilinx/lib_for_caffe/boost_1_55_0/boost/thread/detail/invoke.hpp:278:51: warning: variadic templates only available with -std=c++11 or -std=gnu++11
     template <class Ret, class A, class A0, class ...Args>
                                                   ^
/home/xilinx/lib_for_caffe/boost_1_55_0/boost/thread/detail/invoke.hpp:285:28: warning: variadic templates only available with -std=c++11 or -std=gnu++11
     invoke(Ret (A::*f)(Args...) const volatile, BOOST_THREAD_RV_REF(A0) a0, BOOST_THREAD_RV_REF(Args) ...args)
                            ^
/home/xilinx/lib_for_caffe/boost_1_55_0/boost/thread/detail/invoke.hpp:285:106: warning: variadic templates only available with -std=c++11 or -std=gnu++11
     invoke(Ret (A::*f)(Args...) const volatile, BOOST_THREAD_RV_REF(A0) a0, BOOST_THREAD_RV_REF(Args) ...args)
                                                                                                          ^
/home/xilinx/lib_for_caffe/boost_1_55_0/boost/thread/detail/invoke.hpp:293:51: warning: variadic templates only available with -std=c++11 or -std=gnu++11
     template <class Ret, class A, class A0, class ...Args>
                                                   ^
/home/xilinx/lib_for_caffe/boost_1_55_0/boost/thread/detail/invoke.hpp:300:28: warning: variadic templates only available with -std=c++11 or -std=gnu++11
     invoke(Ret (A::*f)(Args...), BOOST_THREAD_RV_REF(A0) a0, BOOST_THREAD_RV_REF(Args) ...args)
                            ^
/home/xilinx/lib_for_caffe/boost_1_55_0/boost/thread/detail/invoke.hpp:300:91: warning: variadic templates only available with -std=c++11 or -std=gnu++11
     invoke(Ret (A::*f)(Args...), BOOST_THREAD_RV_REF(A0) a0, BOOST_THREAD_RV_REF(Args) ...args)
                                                                                           ^
/home/xilinx/lib_for_caffe/boost_1_55_0/boost/thread/detail/invoke.hpp:305:51: warning: variadic templates only available with -std=c++11 or -std=gnu++11
     template <class Ret, class A, class A0, class ...Args>
                                                   ^
/home/xilinx/lib_for_caffe/boost_1_55_0/boost/thread/detail/invoke.hpp:312:28: warning: variadic templates only available with -std=c++11 or -std=gnu++11
     invoke(Ret (A::*f)(Args...) const, BOOST_THREAD_RV_REF(A0) a0, BOOST_THREAD_RV_REF(Args) ...args)
                            ^
/home/xilinx/lib_for_caffe/boost_1_55_0/boost/thread/detail/invoke.hpp:312:97: warning: variadic templates only available with -std=c++11 or -std=gnu++11
     invoke(Ret (A::*f)(Args...) const, BOOST_THREAD_RV_REF(A0) a0, BOOST_THREAD_RV_REF(Args) ...args)
                                                                                                 ^
/home/xilinx/lib_for_caffe/boost_1_55_0/boost/thread/detail/invoke.hpp:317:51: warning: variadic templates only available with -std=c++11 or -std=gnu++11
     template <class Ret, class A, class A0, class ...Args>
                                                   ^
/home/xilinx/lib_for_caffe/boost_1_55_0/boost/thread/detail/invoke.hpp:324:28: warning: variadic templates only available with -std=c++11 or -std=gnu++11
     invoke(Ret (A::*f)(Args...) volatile, BOOST_THREAD_RV_REF(A0) a0, BOOST_THREAD_RV_REF(Args) ...args)
                            ^
/home/xilinx/lib_for_caffe/boost_1_55_0/boost/thread/detail/invoke.hpp:324:100: warning: variadic templates only available with -std=c++11 or -std=gnu++11
     invoke(Ret (A::*f)(Args...) volatile, BOOST_THREAD_RV_REF(A0) a0, BOOST_THREAD_RV_REF(Args) ...args)
                                                                                                    ^
/home/xilinx/lib_for_caffe/boost_1_55_0/boost/thread/detail/invoke.hpp:329:51: warning: variadic templates only available with -std=c++11 or -std=gnu++11
     template <class Ret, class A, class A0, class ...Args>
                                                   ^
/home/xilinx/lib_for_caffe/boost_1_55_0/boost/thread/detail/invoke.hpp:336:28: warning: variadic templates only available with -std=c++11 or -std=gnu++11
     invoke(Ret (A::*f)(Args...) const volatile, BOOST_THREAD_RV_REF(A0) a0, BOOST_THREAD_RV_REF(Args) ...args)
                            ^
/home/xilinx/lib_for_caffe/boost_1_55_0/boost/thread/detail/invoke.hpp:336:106: warning: variadic templates only available with -std=c++11 or -std=gnu++11
     invoke(Ret (A::*f)(Args...) const volatile, BOOST_THREAD_RV_REF(A0) a0, BOOST_THREAD_RV_REF(Args) ...args)
                                                                                                          ^
/home/xilinx/lib_for_caffe/boost_1_55_0/boost/thread/detail/invoke.hpp:398:42: warning: variadic templates only available with -std=c++11 or -std=gnu++11
     template <class Ret, class Fp, class ...Args>
                                          ^
/home/xilinx/lib_for_caffe/boost_1_55_0/boost/thread/detail/invoke.hpp:405:68: warning: variadic templates only available with -std=c++11 or -std=gnu++11
     invoke(BOOST_THREAD_RV_REF(Fp) f, BOOST_THREAD_RV_REF(Args) ...args)
                                                                    ^
/home/xilinx/lib_for_caffe/boost_1_55_0/boost/thread/detail/invoke.hpp:409:32: warning: variadic templates only available with -std=c++11 or -std=gnu++11
     template <class Ret, class ...Args>
                                ^
/home/xilinx/lib_for_caffe/boost_1_55_0/boost/thread/detail/invoke.hpp:411:24: warning: variadic templates only available with -std=c++11 or -std=gnu++11
     invoke(Ret(*f)(Args... ), BOOST_THREAD_RV_REF(Args) ...args)
                        ^
/home/xilinx/lib_for_caffe/boost_1_55_0/boost/thread/detail/invoke.hpp:411:60: warning: variadic templates only available with -std=c++11 or -std=gnu++11
     invoke(Ret(*f)(Args... ), BOOST_THREAD_RV_REF(Args) ...args)
                                                            ^
In file included from /home/xilinx/lib_for_caffe/boost_1_55_0/boost/bind/bind.hpp:29:0,
                 from /home/xilinx/lib_for_caffe/boost_1_55_0/boost/bind.hpp:22,
                 from /home/xilinx/lib_for_caffe/boost_1_55_0/boost/thread/detail/thread.hpp:29,
                 from /home/xilinx/lib_for_caffe/boost_1_55_0/boost/thread/thread_only.hpp:22,
                 from /home/xilinx/lib_for_caffe/boost_1_55_0/boost/thread/thread.hpp:12,
                 from /home/xilinx/lib_for_caffe/boost_1_55_0/boost/thread.hpp:13,
                 from src/caffe/data_reader.cpp:1:
/home/xilinx/lib_for_caffe/boost_1_55_0/boost/bind/arg.hpp: In constructor ‘boost::arg<I>::arg(const T&)’:
/home/xilinx/lib_for_caffe/boost_1_55_0/boost/bind/arg.hpp:37:22: warning: typedef ‘T_must_be_placeholder’ locally defined but not used [-Wunused-local-typedefs]
         typedef char T_must_be_placeholder[ I == is_placeholder<T>::value? 1: -1 ];
                      ^
In file included from /home/xilinx/lib_for_caffe/boost_1_55_0/boost/thread/once.hpp:20:0,
                 from /home/xilinx/lib_for_caffe/boost_1_55_0/boost/thread.hpp:17,
                 from src/caffe/data_reader.cpp:1:
/home/xilinx/lib_for_caffe/boost_1_55_0/boost/thread/pthread/once_atomic.hpp: At global scope:
/home/xilinx/lib_for_caffe/boost_1_55_0/boost/thread/pthread/once_atomic.hpp:120:37: warning: variadic templates only available with -std=c++11 or -std=gnu++11
   template<typename Function, class ...ArgTypes>
                                     ^
/home/xilinx/lib_for_caffe/boost_1_55_0/boost/thread/pthread/once_atomic.hpp:121:108: warning: variadic templates only available with -std=c++11 or -std=gnu++11
   inline void call_once(once_flag& flag, BOOST_THREAD_RV_REF(Function) f, BOOST_THREAD_RV_REF(ArgTypes)... args)
                                                                                                            ^
In file included from /home/xilinx/lib_for_caffe/boost_1_55_0/boost/tuple/tuple.hpp:33:0,
                 from /home/xilinx/lib_for_caffe/boost_1_55_0/boost/thread/detail/async_func.hpp:37,
                 from /home/xilinx/lib_for_caffe/boost_1_55_0/boost/thread/future.hpp:22,
                 from /home/xilinx/lib_for_caffe/boost_1_55_0/boost/thread.hpp:24,
                 from src/caffe/data_reader.cpp:1:
/home/xilinx/lib_for_caffe/boost_1_55_0/boost/tuple/detail/tuple_basic.hpp: In function ‘typename boost::tuples::access_traits<typename boost::tuples::element<N, boost::tuples::cons<HT, TT> >::type>::const_type boost::tuples::get(const boost::tuples::cons<HT, TT>&)’:
/home/xilinx/lib_for_caffe/boost_1_55_0/boost/tuple/detail/tuple_basic.hpp:228:45: warning: typedef ‘cons_element’ locally defined but not used [-Wunused-local-typedefs]
   typedef BOOST_DEDUCED_TYPENAME impl::type cons_element;
                                             ^
In file included from /home/xilinx/lib_for_caffe/boost_1_55_0/boost/system/system_error.hpp:14:0,
                 from /home/xilinx/lib_for_caffe/boost_1_55_0/boost/thread/exceptions.hpp:22,
                 from /home/xilinx/lib_for_caffe/boost_1_55_0/boost/thread/pthread/thread_data.hpp:10,
                 from /home/xilinx/lib_for_caffe/boost_1_55_0/boost/thread/thread_only.hpp:17,
                 from /home/xilinx/lib_for_caffe/boost_1_55_0/boost/thread/thread.hpp:12,
                 from /home/xilinx/lib_for_caffe/boost_1_55_0/boost/thread.hpp:13,
                 from src/caffe/data_reader.cpp:1:
/home/xilinx/lib_for_caffe/boost_1_55_0/boost/system/error_code.hpp: At global scope:
/home/xilinx/lib_for_caffe/boost_1_55_0/boost/system/error_code.hpp:222:36: warning: ‘boost::system::posix_category’ defined but not used [-Wunused-variable]
     static const error_category &  posix_category = generic_category();
                                    ^
/home/xilinx/lib_for_caffe/boost_1_55_0/boost/system/error_code.hpp:223:36: warning: ‘boost::system::errno_ecat’ defined but not used [-Wunused-variable]
     static const error_category &  errno_ecat     = generic_category();
                                    ^
/home/xilinx/lib_for_caffe/boost_1_55_0/boost/system/error_code.hpp:224:36: warning: ‘boost::system::native_ecat’ defined but not used [-Wunused-variable]
     static const error_category &  native_ecat    = system_category();
                                    ^
